<?xml version="1.0" encoding="utf-8"?>
<!-- Generator: Adobe Illustrator 23.1.1, SVG Export Plug-In . SVG Version: 6.00 Build 0)  -->
<svg version="1.1" id="Layer_1" xmlns="http://www.w3.org/2000/svg" xmlns:xlink="http://www.w3.org/1999/xlink" x="0px" y="0px"
	 viewBox="0 0 502.2 539.9" style="enable-background:new 0 0 502.2 539.9;" xml:space="preserve">
<style type="text/css">
	.st0{fill:#F90000;}
	.st1{display:none;fill:#0B9B53;}
</style>
<path class="st0" d="M418.1,172.2c-22.6-23.1-59.7-23.1-82.3,0c-11.3-11.5-26.2-17.3-41.1-17.3c-14.9,0-29.8,5.8-41.1,17.3
	c-11.3-11.5-26.2-17.3-41.1-17.3c-14.9,0-29.8,5.8-41.1,17.3c-11.3-11.5-26.2-17.3-41.1-17.3s-29.8,5.8-41.1,17.3
	C89,81.3,162.7,7.7,253.6,7.7S418.1,81.3,418.1,172.2z"/>
<g>
	<path class="st1" d="M246.2,205.8V9.2c0.4,0,0.9,0,1.3,0c53.7,1.4,97.1,88.9,97.1,196.6c-13.5-13.8-31.3-20.7-49.2-20.7
		C277.5,185.1,259.7,192,246.2,205.8z"/>
	<path class="st1" d="M49.5,205.8c0-108.2,87.4-196,195.4-196.6c-53.7,1.4-97.1,88.9-97.1,196.6c-13.5-13.8-31.3-20.7-49.2-20.7
		S63,192,49.5,205.8z"/>
</g>
<path d="M253.6,0C158.6,0,81.4,77.2,81.4,172.2c0,1.2,0.3,2.4,0.8,3.5l0.7,1.3c0.1,0.3,0.3,0.5,0.4,0.7l163.8,247
	c0.8,1.4,2.1,2.4,3.5,3c0.1,0,0.2,0.1,0.3,0.1c0.2,0.1,0.4,0.1,0.6,0.2c0.2,0,0.3,0.1,0.5,0.1c0.2,0,0.3,0.1,0.5,0.1
	c0.3,0,0.6,0.1,0.9,0.1c0,0,0.1,0,0.1,0c0,0,0,0,0,0c0,0,0,0,0,0c0,0,0,0,0,0c0.4,0,0.8,0,1.1-0.1c0.1,0,0.1,0,0.2,0
	c0.3-0.1,0.7-0.1,1-0.2c0,0,0.1,0,0.1,0c1.6-0.5,3-1.6,4-3l164.5-248.5c0.8-1.3,1.3-2.7,1.3-4.2C425.7,77.2,348.5,0,253.6,0z
	 M409.6,156c-9.8-5.7-21-8.7-32.6-8.7c-12.1,0-23.7,3.3-33.8,9.4c-1.8-39.3-10.3-75.8-24.5-104.2c-6.2-12.3-13.2-22.6-20.8-30.7
	C357.8,39.4,403,92,409.6,156z M245.9,373.8l-66.7-198.5c9.2-8.2,20.8-12.7,33.3-12.7c12.5,0,24.3,4.6,33.5,12.9L245.9,373.8
	L245.9,373.8z M261.2,175.4c9.2-8.3,21-12.9,33.5-12.9c12.4,0,24.1,4.5,33.3,12.7l-66.7,198.7V175.4z M294.7,147.2
	c-12,0-23.5,3.2-33.5,9.2V16.2c6.6,1.5,13.1,4.9,19.4,10.2c9,7.6,17.2,18.7,24.2,32.8c13.1,26.3,21.1,60.2,22.9,96.9
	C317.9,150.4,306.5,147.2,294.7,147.2z M226.5,26.4c6.3-5.3,12.8-8.8,19.4-10.2v140.3c-10-6-21.5-9.2-33.5-9.2c0,0,0,0,0,0
	c-11.8,0-23.2,3.1-33.1,9c1.8-36.7,9.8-70.7,22.9-96.9C209.3,45.1,217.5,34,226.5,26.4z M163.9,175.7l-0.7,0.2l64.5,191.9
	L98.9,173.5c8.8-7.1,19.7-11,31.2-11C142.8,162.5,154.7,167.2,163.9,175.7z M343.9,175.9l-0.7-0.2c9.2-8.5,21.1-13.2,33.8-13.2
	c11.5,0,22.3,3.8,31.1,10.9L279.4,367.8L343.9,175.9z M209.3,21.7c-7.6,8.1-14.6,18.4-20.7,30.7c-14.2,28.4-22.8,65-24.5,104.2
	c-10.1-6.2-21.7-9.4-33.8-9.4c-11.7,0-22.8,3-32.6,8.7C104.1,92,149.3,39.4,209.3,21.7z"/>
<circle cx="253.6" cy="470.9" r="69"/>
</svg>
