<?xml version="1.0" encoding="iso-8859-1"?>
<!-- Generator: Adobe Illustrator 17.1.0, SVG Export Plug-In . SVG Version: 6.00 Build 0)  -->
<!DOCTYPE svg PUBLIC "-//W3C//DTD SVG 1.1//EN" "http://www.w3.org/Graphics/SVG/1.1/DTD/svg11.dtd">
<svg version="1.1" id="Capa_1" xmlns="http://www.w3.org/2000/svg" xmlns:xlink="http://www.w3.org/1999/xlink" x="0px" y="0px"
	 viewBox="0 0 297.666 297.666" style="enable-background:new 0 0 297.666 297.666;" xml:space="preserve">
<g>
	<path d="M276.783,119.911c1.685-1.725,2.427-4.017,2.246-6.245h0.09C270.389,49.563,215.295,0,148.834,0
		C82.575,0,27.615,49.26,18.629,113.079c-0.014,0.099-0.032,0.197-0.042,0.297c-0.013,0.097-0.027,0.193-0.04,0.29h0.023
		c-0.141,2.188,0.606,4.423,2.26,6.112l71.586,73.066c2.338-0.762,4.829-1.179,7.417-1.179h8.357c-0.017-1-0.024-1.207-0.024-1.688
		c0-1.261,0.066-2.506,0.18-3.739l-73.77-75.294c6.241-12.513,19.158-21.112,34.094-21.112c13.01,0,24.49,6.527,31.359,16.481
		l17.594,57.565c3.68-4.43,8.27-8.077,13.48-10.636l-14.121-46.197c6.806-10.364,18.525-17.213,31.852-17.213
		c13.073,0,24.605,6.59,31.462,16.626l-13.95,46.695c5.225,2.538,9.829,6.176,13.532,10.6l1.221-4.088l15.986-53.512
		c6.882-9.863,18.306-16.321,31.245-16.321c15.137,0,28.207,8.828,34.349,21.616l-73.353,75.026c0.109,1.218,0.174,2.446,0.174,3.69
		c0,0.418-0.006,0.5-0.019,1.5h7.352c2.93,0,5.737,0.529,8.335,1.495L276.783,119.911z"/>
	<path d="M204.833,215.666c0-4.418-3.582-8-8-8h-30.137c4.213-5,6.804-10.908,6.804-17.5c0-13.622-11.045-25.041-24.666-25.041
		c-13.623,0-24.668,11.032-24.668,24.654c0,6.327,2.385,12.366,6.303,16.732c-0.029,0.051-0.058,0.154-0.086,0.154h-0.005
		c-0.068,0-0.136,0-0.201,1H99.833c-4.418,0-8,3.582-8,8s3.582,8,8,8H126.5v66c0,4.418,3.582,8,8,8s8-3.582,8-8v-25.512
		c2,0.326,2.952,0.512,4.5,0.512s3.5-0.185,4.5-0.512v25.512c0,4.418,3.582,8,8,8s8-3.582,8-8v-66h29.333
		C201.251,223.666,204.833,220.084,204.833,215.666z"/>
</g>
<g>
</g>
<g>
</g>
<g>
</g>
<g>
</g>
<g>
</g>
<g>
</g>
<g>
</g>
<g>
</g>
<g>
</g>
<g>
</g>
<g>
</g>
<g>
</g>
<g>
</g>
<g>
</g>
<g>
</g>
</svg>
